Tarea12/Contador/simulation/qsim/Contador.msim.vcd
$comment
	File created using the following command:
		vcd file Contador.msim.vcd -direction
$end
$date
	Wed Oct 12 21:21:41 2022
$end
$version
	ModelSim Version 10.5b
$end
$timescale
	1ps
$end

$scope module contador_vhd_vec_tst $end
$var wire 1 ! clk $end
$var wire 1 " reset $end
$var wire 1 # salMoore [2] $end
$var wire 1 $ salMoore [1] $end
$var wire 1 % salMoore [0] $end

$scope module i1 $end
$var wire 1 & gnd $end
$var wire 1 ' vcc $end
$var wire 1 ( unknown $end
$var wire 1 ) devoe $end
$var wire 1 * devclrn $end
$var wire 1 + devpor $end
$var wire 1 , ww_devoe $end
$var wire 1 - ww_devclrn $end
$var wire 1 . ww_devpor $end
$var wire 1 / ww_clk $end
$var wire 1 0 ww_reset $end
$var wire 1 1 ww_salMoore [2] $end
$var wire 1 2 ww_salMoore [1] $end
$var wire 1 3 ww_salMoore [0] $end
$var wire 1 4 \~QUARTUS_CREATED_ADC1~_CHSEL_bus\ [4] $end
$var wire 1 5 \~QUARTUS_CREATED_ADC1~_CHSEL_bus\ [3] $end
$var wire 1 6 \~QUARTUS_CREATED_ADC1~_CHSEL_bus\ [2] $end
$var wire 1 7 \~QUARTUS_CREATED_ADC1~_CHSEL_bus\ [1] $end
$var wire 1 8 \~QUARTUS_CREATED_ADC1~_CHSEL_bus\ [0] $end
$var wire 1 9 \~QUARTUS_CREATED_ADC2~_CHSEL_bus\ [4] $end
$var wire 1 : \~QUARTUS_CREATED_ADC2~_CHSEL_bus\ [3] $end
$var wire 1 ; \~QUARTUS_CREATED_ADC2~_CHSEL_bus\ [2] $end
$var wire 1 < \~QUARTUS_CREATED_ADC2~_CHSEL_bus\ [1] $end
$var wire 1 = \~QUARTUS_CREATED_ADC2~_CHSEL_bus\ [0] $end
$var wire 1 > \clk~inputclkctrl_INCLK_bus\ [3] $end
$var wire 1 ? \clk~inputclkctrl_INCLK_bus\ [2] $end
$var wire 1 @ \clk~inputclkctrl_INCLK_bus\ [1] $end
$var wire 1 A \clk~inputclkctrl_INCLK_bus\ [0] $end
$var wire 1 B \~QUARTUS_CREATED_GND~I_combout\ $end
$var wire 1 C \~QUARTUS_CREATED_UNVM~~busy\ $end
$var wire 1 D \~QUARTUS_CREATED_ADC1~~eoc\ $end
$var wire 1 E \~QUARTUS_CREATED_ADC2~~eoc\ $end
$var wire 1 F \salMoore[0]~output_o\ $end
$var wire 1 G \salMoore[1]~output_o\ $end
$var wire 1 H \salMoore[2]~output_o\ $end
$var wire 1 I \clk~input_o\ $end
$var wire 1 J \clk~inputclkctrl_outclk\ $end
$var wire 1 K \reset~input_o\ $end
$var wire 1 L \present_state~0_combout\ $end
$var wire 1 M \present_state~1_combout\ $end
$var wire 1 N \present_state~2_combout\ $end
$var wire 1 O present_state [2] $end
$var wire 1 P present_state [1] $end
$var wire 1 Q present_state [0] $end
$upscope $end
$upscope $end
$enddefinitions $end
#0
$dumpvars
0!
0"
0&
1'
x(
1)
1*
1+
1,
1-
1.
0/
00
0B
zC
zD
zE
0F
0G
0H
0I
0J
0K
1L
0M
0N
01
02
03
0O
0P
0Q
1>
1?
1@
0A
04
05
06
07
08
09
0:
0;
0<
0=
0#
0$
0%
$end
#10000
1!
1/
1I
1A
1J
1Q
1F
0L
1M
13
1%
#20000
0!
0/
0I
0A
0J
#30000
1!
1/
1I
1A
1J
0Q
1P
1G
0F
1L
12
03
0%
1$
#40000
0!
0/
0I
0A
0J
#50000
1!
1/
1I
1A
1J
1Q
1F
0L
0M
1N
13
1%
#60000
0!
0/
0I
0A
0J
#70000
1!
1/
1I
1A
1J
0Q
0P
1O
1H
0G
0F
1L
11
02
03
0%
0$
1#
#80000
0!
0/
0I
0A
0J
#90000
1!
1/
1I
1A
1J
1Q
1F
0L
1M
13
1%
#100000
0!
0/
0I
0A
0J
#110000
1!
1/
1I
1A
1J
0Q
1P
1G
0F
1L
12
03
0%
1$
#120000
0!
0/
0I
0A
0J
#130000
1!
1/
1I
1A
1J
1Q
1F
0L
0M
0N
13
1%
#140000
0!
0/
0I
0A
0J
#150000
1!
1/
1I
1A
1J
0Q
0P
0O
0H
0G
0F
1L
01
02
03
0%
0$
0#
#160000
0!
0/
0I
0A
0J
#170000
1!
1/
1I
1A
1J
1Q
1F
0L
1M
13
1%
#180000
0!
0/
0I
0A
0J
#190000
1!
1"
1/
10
1K
1I
1A
0M
1J
0Q
0F
03
0%
#200000
0!
0"
0/
00
0K
0I
0A
1L
0J
#210000
1!
1/
1I
1A
1J
1Q
1F
0L
1M
13
1%
#220000
0!
0/
0I
0A
0J
#230000
1!
1/
1I
1A
1J
0Q
1P
1G
0F
1L
12
03
0%
1$
#240000
0!
0/
0I
0A
0J
#250000
1!
1/
1I
1A
1J
1Q
1F
0L
0M
1N
13
1%
#260000
0!
0/
0I
0A
0J
#270000
1!
1/
1I
1A
1J
0Q
0P
1O
1H
0G
0F
1L
11
02
03
0%
0$
1#
#280000
0!
0/
0I
0A
0J
#290000
1!
1/
1I
1A
1J
1Q
1F
0L
1M
13
1%
#300000
0!
0/
0I
0A
0J
#310000
1!
1/
1I
1A
1J
0Q
1P
1G
0F
1L
12
03
0%
1$
#320000
0!
0/
0I
0A
0J
#330000
1!
1/
1I
1A
1J
1Q
1F
0L
0M
0N
13
1%
#340000
0!
0/
0I
0A
0J
#350000
1!
1/
1I
1A
1J
0Q
0P
0O
0H
0G
0F
1L
01
02
03
0%
0$
0#
#360000
0!
0/
0I
0A
0J
#370000
1!
1/
1I
1A
1J
1Q
1F
0L
1M
13
1%
#380000
0!
0/
0I
0A
0J
#390000
1!
1/
1I
1A
1J
0Q
1P
1G
0F
1L
12
03
0%
1$
#400000
0!
0/
0I
0A
0J
#410000
1!
1/
1I
1A
1J
1Q
1F
0L
0M
1N
13
1%
#420000
0!
0/
0I
0A
0J
#430000
1!
1/
1I
1A
1J
0Q
0P
1O
1H
0G
0F
1L
11
02
03
0%
0$
1#
#440000
0!
0/
0I
0A
0J
#450000
1!
1/
1I
1A
1J
1Q
1F
0L
1M
13
1%
#460000
0!
0/
0I
0A
0J
#470000
1!
1/
1I
1A
1J
0Q
1P
1G
0F
1L
12
03
0%
1$
#480000
0!
0/
0I
0A
0J
#490000
1!
1/
1I
1A
1J
1Q
1F
0L
0M
0N
13
1%
#500000
0!
0/
0I
0A
0J
#510000
1!
1/
1I
1A
1J
0Q
0P
0O
0H
0G
0F
1L
01
02
03
0%
0$
0#
#520000
0!
0/
0I
0A
0J
#530000
1!
1/
1I
1A
1J
1Q
1F
0L
1M
13
1%
#540000
0!
0/
0I
0A
0J
#550000
1!
1/
1I
1A
1J
0Q
1P
1G
0F
1L
12
03
0%
1$
#560000
0!
0/
0I
0A
0J
#570000
1!
1/
1I
1A
1J
1Q
1F
0L
0M
1N
13
1%
#580000
0!
0/
0I
0A
0J
#590000
1!
1/
1I
1A
1J
0Q
0P
1O
1H
0G
0F
1L
11
02
03
0%
0$
1#
#600000
0!
0/
0I
0A
0J
#610000
1!
1/
1I
1A
1J
1Q
1F
0L
1M
13
1%
#620000
0!
0/
0I
0A
0J
#630000
1!
1/
1I
1A
1J
0Q
1P
1G
0F
1L
12
03
0%
1$
#640000
0!
0/
0I
0A
0J
#650000
1!
1/
1I
1A
1J
1Q
1F
0L
0M
0N
13
1%
#660000
0!
0/
0I
0A
0J
#670000
1!
1/
1I
1A
1J
0Q
0P
0O
0H
0G
0F
1L
01
02
03
0%
0$
0#
#680000
0!
0/
0I
0A
0J
#690000
1!
1/
1I
1A
1J
1Q
1F
0L
1M
13
1%
#700000
0!
0/
0I
0A
0J
#710000
1!
1/
1I
1A
1J
0Q
1P
1G
0F
1L
12
03
0%
1$
#720000
0!
0/
0I
0A
0J
#730000
1!
1/
1I
1A
1J
1Q
1F
0L
0M
1N
13
1%
#740000
0!
0/
0I
0A
0J
#750000
1!
1/
1I
1A
1J
0Q
0P
1O
1H
0G
0F
1L
11
02
03
0%
0$
1#
#760000
0!
0/
0I
0A
0J
#770000
1!
1/
1I
1A
1J
1Q
1F
0L
1M
13
1%
#780000
0!
0/
0I
0A
0J
#790000
1!
1/
1I
1A
1J
0Q
1P
1G
0F
1L
12
03
0%
1$
#800000
0!
0/
0I
0A
0J
#810000
1!
1/
1I
1A
1J
1Q
1F
0L
0M
0N
13
1%
#820000
0!
0/
0I
0A
0J
#830000
1!
1/
1I
1A
1J
0Q
0P
0O
0H
0G
0F
1L
01
02
03
0%
0$
0#
#840000
0!
0/
0I
0A
0J
#850000
1!
1/
1I
1A
1J
1Q
1F
0L
1M
13
1%
#860000
0!
0/
0I
0A
0J
#870000
1!
1/
1I
1A
1J
0Q
1P
1G
0F
1L
12
03
0%
1$
#880000
0!
0/
0I
0A
0J
#890000
1!
1/
1I
1A
1J
1Q
1F
0L
0M
1N
13
1%
#900000
0!
0/
0I
0A
0J
#910000
1!
1/
1I
1A
1J
0Q
0P
1O
1H
0G
0F
1L
11
02
03
0%
0$
1#
#920000
0!
0/
0I
0A
0J
#930000
1!
1/
1I
1A
1J
1Q
1F
0L
1M
13
1%
#940000
0!
0/
0I
0A
0J
#950000
1!
1/
1I
1A
1J
0Q
1P
1G
0F
1L
12
03
0%
1$
#960000
0!
0/
0I
0A
0J
#970000
1!
1/
1I
1A
1J
1Q
1F
0L
0M
0N
13
1%
#980000
0!
0/
0I
0A
0J
#990000
1!
1/
1I
1A
1J
0Q
0P
0O
0H
0G
0F
1L
01
02
03
0%
0$
0#
