Tarea12/ContadorFFD/simulation/qsim/ContadorFFD.msim.vcd
$comment
	File created using the following command:
		vcd file ContadorFFD.msim.vcd -direction
$end
$date
	Wed Oct 12 21:45:37 2022
$end
$version
	ModelSim Version 10.5b
$end
$timescale
	1ps
$end

$scope module contadorffd_vhd_vec_tst $end
$var wire 1 ! clk $end
$var wire 1 " Q0 $end
$var wire 1 # Q1 $end
$var wire 1 $ Q2 $end

$scope module i1 $end
$var wire 1 % gnd $end
$var wire 1 & vcc $end
$var wire 1 ' unknown $end
$var wire 1 ( devoe $end
$var wire 1 ) devclrn $end
$var wire 1 * devpor $end
$var wire 1 + ww_devoe $end
$var wire 1 , ww_devclrn $end
$var wire 1 - ww_devpor $end
$var wire 1 . ww_clk $end
$var wire 1 / \~QUARTUS_CREATED_ADC1~_CHSEL_bus\ [4] $end
$var wire 1 0 \~QUARTUS_CREATED_ADC1~_CHSEL_bus\ [3] $end
$var wire 1 1 \~QUARTUS_CREATED_ADC1~_CHSEL_bus\ [2] $end
$var wire 1 2 \~QUARTUS_CREATED_ADC1~_CHSEL_bus\ [1] $end
$var wire 1 3 \~QUARTUS_CREATED_ADC1~_CHSEL_bus\ [0] $end
$var wire 1 4 \~QUARTUS_CREATED_ADC2~_CHSEL_bus\ [4] $end
$var wire 1 5 \~QUARTUS_CREATED_ADC2~_CHSEL_bus\ [3] $end
$var wire 1 6 \~QUARTUS_CREATED_ADC2~_CHSEL_bus\ [2] $end
$var wire 1 7 \~QUARTUS_CREATED_ADC2~_CHSEL_bus\ [1] $end
$var wire 1 8 \~QUARTUS_CREATED_ADC2~_CHSEL_bus\ [0] $end
$var wire 1 9 \clk~inputclkctrl_INCLK_bus\ [3] $end
$var wire 1 : \clk~inputclkctrl_INCLK_bus\ [2] $end
$var wire 1 ; \clk~inputclkctrl_INCLK_bus\ [1] $end
$var wire 1 < \clk~inputclkctrl_INCLK_bus\ [0] $end
$var wire 1 = \Q0~input_o\ $end
$var wire 1 > \Q1~input_o\ $end
$var wire 1 ? \Q2~input_o\ $end
$var wire 1 @ \~QUARTUS_CREATED_GND~I_combout\ $end
$var wire 1 A \~QUARTUS_CREATED_UNVM~~busy\ $end
$var wire 1 B \~QUARTUS_CREATED_ADC1~~eoc\ $end
$var wire 1 C \~QUARTUS_CREATED_ADC2~~eoc\ $end
$var wire 1 D \Q0~output_o\ $end
$var wire 1 E \Q1~output_o\ $end
$var wire 1 F \Q2~output_o\ $end
$var wire 1 G \clk~input_o\ $end
$var wire 1 H \clk~inputclkctrl_outclk\ $end
$var wire 1 I \u1|D1~0_combout\ $end
$var wire 1 J \u3|Q~q\ $end
$var wire 1 K \u2|Q~0_combout\ $end
$var wire 1 L \u2|Q~q\ $end
$var wire 1 M \u1|D2~0_combout\ $end
$var wire 1 N \u4|Q~q\ $end
$upscope $end
$upscope $end
$enddefinitions $end
#0
$dumpvars
0!
0"
0#
0$
0%
1&
x'
1(
1)
1*
1+
1,
1-
0.
0=
0>
0?
0@
zA
zB
zC
0D
0E
0F
0G
0H
0I
0J
1K
0L
0M
0N
19
1:
1;
0<
0/
00
01
02
03
04
05
06
07
08
$end
#10000
1!
1.
1G
1<
1H
1L
1D
1I
1"
1=
#20000
0!
0.
0G
0<
0H
#30000
1!
1.
1G
1<
1H
1J
1E
0I
0K
1M
1#
1>
#40000
0!
0.
0G
0<
0H
#50000
1!
1.
1G
1<
1H
0J
0L
1N
1F
0D
0E
1K
1$
0"
0#
0>
0=
1?
#60000
0!
0.
0G
0<
0H
#70000
1!
1.
1G
1<
1H
1L
1D
1I
1"
1=
#80000
0!
0.
0G
0<
0H
#90000
1!
1.
1G
1<
1H
1J
1E
0I
0K
0M
1#
1>
#100000
0!
0.
0G
0<
0H
#110000
1!
1.
1G
1<
1H
0J
0L
0N
0F
0D
0E
1K
0$
0"
0#
0>
0=
0?
#120000
0!
0.
0G
0<
0H
#130000
1!
1.
1G
1<
1H
1L
1D
1I
1"
1=
#140000
0!
0.
0G
0<
0H
#150000
1!
1.
1G
1<
1H
1J
1E
0I
0K
1M
1#
1>
#160000
0!
0.
0G
0<
0H
#170000
1!
1.
1G
1<
1H
0J
0L
1N
1F
0D
0E
1K
1$
0"
0#
0>
0=
1?
#180000
0!
0.
0G
0<
0H
#190000
1!
1.
1G
1<
1H
1L
1D
1I
1"
1=
#200000
0!
0.
0G
0<
0H
#210000
1!
1.
1G
1<
1H
1J
1E
0I
0K
0M
1#
1>
#220000
0!
0.
0G
0<
0H
#230000
1!
1.
1G
1<
1H
0J
0L
0N
0F
0D
0E
1K
0$
0"
0#
0>
0=
0?
#240000
0!
0.
0G
0<
0H
#250000
1!
1.
1G
1<
1H
1L
1D
1I
1"
1=
#260000
0!
0.
0G
0<
0H
#270000
1!
1.
1G
1<
1H
1J
1E
0I
0K
1M
1#
1>
#280000
0!
0.
0G
0<
0H
#290000
1!
1.
1G
1<
1H
0J
0L
1N
1F
0D
0E
1K
1$
0"
0#
0>
0=
1?
#300000
0!
0.
0G
0<
0H
#310000
1!
1.
1G
1<
1H
1L
1D
1I
1"
1=
#320000
0!
0.
0G
0<
0H
#330000
1!
1.
1G
1<
1H
1J
1E
0I
0K
0M
1#
1>
#340000
0!
0.
0G
0<
0H
#350000
1!
1.
1G
1<
1H
0J
0L
0N
0F
0D
0E
1K
0$
0"
0#
0>
0=
0?
#360000
0!
0.
0G
0<
0H
#370000
1!
1.
1G
1<
1H
1L
1D
1I
1"
1=
#380000
0!
0.
0G
0<
0H
#390000
1!
1.
1G
1<
1H
1J
1E
0I
0K
1M
1#
1>
#400000
0!
0.
0G
0<
0H
#410000
1!
1.
1G
1<
1H
0J
0L
1N
1F
0D
0E
1K
1$
0"
0#
0>
0=
1?
#420000
0!
0.
0G
0<
0H
#430000
1!
1.
1G
1<
1H
1L
1D
1I
1"
1=
#440000
0!
0.
0G
0<
0H
#450000
1!
1.
1G
1<
1H
1J
1E
0I
0K
0M
1#
1>
#460000
0!
0.
0G
0<
0H
#470000
1!
1.
1G
1<
1H
0J
0L
0N
0F
0D
0E
1K
0$
0"
0#
0>
0=
0?
#480000
0!
0.
0G
0<
0H
#490000
1!
1.
1G
1<
1H
1L
1D
1I
1"
1=
#500000
0!
0.
0G
0<
0H
#510000
1!
1.
1G
1<
1H
1J
1E
0I
0K
1M
1#
1>
#520000
0!
0.
0G
0<
0H
#530000
1!
1.
1G
1<
1H
0J
0L
1N
1F
0D
0E
1K
1$
0"
0#
0>
0=
1?
#540000
0!
0.
0G
0<
0H
#550000
1!
1.
1G
1<
1H
1L
1D
1I
1"
1=
#560000
0!
0.
0G
0<
0H
#570000
1!
1.
1G
1<
1H
1J
1E
0I
0K
0M
1#
1>
#580000
0!
0.
0G
0<
0H
#590000
1!
1.
1G
1<
1H
0J
0L
0N
0F
0D
0E
1K
0$
0"
0#
0>
0=
0?
#600000
0!
0.
0G
0<
0H
#610000
1!
1.
1G
1<
1H
1L
1D
1I
1"
1=
#620000
0!
0.
0G
0<
0H
#630000
1!
1.
1G
1<
1H
1J
1E
0I
0K
1M
1#
1>
#640000
0!
0.
0G
0<
0H
#650000
1!
1.
1G
1<
1H
0J
0L
1N
1F
0D
0E
1K
1$
0"
0#
0>
0=
1?
#660000
0!
0.
0G
0<
0H
#670000
1!
1.
1G
1<
1H
1L
1D
1I
1"
1=
#680000
0!
0.
0G
0<
0H
#690000
1!
1.
1G
1<
1H
1J
1E
0I
0K
0M
1#
1>
#700000
0!
0.
0G
0<
0H
#710000
1!
1.
1G
1<
1H
0J
0L
0N
0F
0D
0E
1K
0$
0"
0#
0>
0=
0?
#720000
0!
0.
0G
0<
0H
#730000
1!
1.
1G
1<
1H
1L
1D
1I
1"
1=
#740000
0!
0.
0G
0<
0H
#750000
1!
1.
1G
1<
1H
1J
1E
0I
0K
1M
1#
1>
#760000
0!
0.
0G
0<
0H
#770000
1!
1.
1G
1<
1H
0J
0L
1N
1F
0D
0E
1K
1$
0"
0#
0>
0=
1?
#780000
0!
0.
0G
0<
0H
#790000
1!
1.
1G
1<
1H
1L
1D
1I
1"
1=
#800000
0!
0.
0G
0<
0H
#810000
1!
1.
1G
1<
1H
1J
1E
0I
0K
0M
1#
1>
#820000
0!
0.
0G
0<
0H
#830000
1!
1.
1G
1<
1H
0J
0L
0N
0F
0D
0E
1K
0$
0"
0#
0>
0=
0?
#840000
0!
0.
0G
0<
0H
#850000
1!
1.
1G
1<
1H
1L
1D
1I
1"
1=
#860000
0!
0.
0G
0<
0H
#870000
1!
1.
1G
1<
1H
1J
1E
0I
0K
1M
1#
1>
#880000
0!
0.
0G
0<
0H
#890000
1!
1.
1G
1<
1H
0J
0L
1N
1F
0D
0E
1K
1$
0"
0#
0>
0=
1?
#900000
0!
0.
0G
0<
0H
#910000
1!
1.
1G
1<
1H
1L
1D
1I
1"
1=
#920000
0!
0.
0G
0<
0H
#930000
1!
1.
1G
1<
1H
1J
1E
0I
0K
0M
1#
1>
#940000
0!
0.
0G
0<
0H
#950000
1!
1.
1G
1<
1H
0J
0L
0N
0F
0D
0E
1K
0$
0"
0#
0>
0=
0?
#960000
0!
0.
0G
0<
0H
#970000
1!
1.
1G
1<
1H
1L
1D
1I
1"
1=
#980000
0!
0.
0G
0<
0H
#990000
1!
1.
1G
1<
1H
1J
1E
0I
0K
1M
1#
1>
