practica 0/mux/simulation/qsim/mux1.msim.vcd
$comment
	File created using the following command:
		vcd file mux1.msim.vcd -direction
$end
$date
	Mon Aug 29 02:21:39 2022
$end
$version
	ModelSim Version 10.5b
$end
$timescale
	1ps
$end

$scope module mux1_vhd_vec_tst $end
$var wire 1 ! A [3] $end
$var wire 1 " A [2] $end
$var wire 1 # A [1] $end
$var wire 1 $ A [0] $end
$var wire 1 % F $end
$var wire 1 & SEL [1] $end
$var wire 1 ' SEL [0] $end

$scope module i1 $end
$var wire 1 ( gnd $end
$var wire 1 ) vcc $end
$var wire 1 * unknown $end
$var wire 1 + devoe $end
$var wire 1 , devclrn $end
$var wire 1 - devpor $end
$var wire 1 . ww_devoe $end
$var wire 1 / ww_devclrn $end
$var wire 1 0 ww_devpor $end
$var wire 1 1 ww_SEL [1] $end
$var wire 1 2 ww_SEL [0] $end
$var wire 1 3 ww_A [3] $end
$var wire 1 4 ww_A [2] $end
$var wire 1 5 ww_A [1] $end
$var wire 1 6 ww_A [0] $end
$var wire 1 7 ww_F $end
$var wire 1 8 \~QUARTUS_CREATED_ADC1~_CHSEL_bus\ [4] $end
$var wire 1 9 \~QUARTUS_CREATED_ADC1~_CHSEL_bus\ [3] $end
$var wire 1 : \~QUARTUS_CREATED_ADC1~_CHSEL_bus\ [2] $end
$var wire 1 ; \~QUARTUS_CREATED_ADC1~_CHSEL_bus\ [1] $end
$var wire 1 < \~QUARTUS_CREATED_ADC1~_CHSEL_bus\ [0] $end
$var wire 1 = \~QUARTUS_CREATED_ADC2~_CHSEL_bus\ [4] $end
$var wire 1 > \~QUARTUS_CREATED_ADC2~_CHSEL_bus\ [3] $end
$var wire 1 ? \~QUARTUS_CREATED_ADC2~_CHSEL_bus\ [2] $end
$var wire 1 @ \~QUARTUS_CREATED_ADC2~_CHSEL_bus\ [1] $end
$var wire 1 A \~QUARTUS_CREATED_ADC2~_CHSEL_bus\ [0] $end
$var wire 1 B \~QUARTUS_CREATED_GND~I_combout\ $end
$var wire 1 C \~QUARTUS_CREATED_UNVM~~busy\ $end
$var wire 1 D \~QUARTUS_CREATED_ADC1~~eoc\ $end
$var wire 1 E \~QUARTUS_CREATED_ADC2~~eoc\ $end
$var wire 1 F \F~output_o\ $end
$var wire 1 G \SEL[1]~input_o\ $end
$var wire 1 H \A[0]~input_o\ $end
$var wire 1 I \A[1]~input_o\ $end
$var wire 1 J \SEL[0]~input_o\ $end
$var wire 1 K \Mux0~0_combout\ $end
$var wire 1 L \A[2]~input_o\ $end
$var wire 1 M \A[3]~input_o\ $end
$var wire 1 N \Mux0~1_combout\ $end
$upscope $end
$upscope $end
$enddefinitions $end
#0
$dumpvars
0%
0(
1)
x*
1+
1,
1-
1.
1/
10
07
0B
zC
zD
zE
0F
0G
0H
0I
0J
0K
0L
0M
0N
0!
0"
0#
0$
0&
0'
01
02
03
04
05
06
08
09
0:
0;
0<
0=
0>
0?
0@
0A
$end
#2500
1'
12
1J
#5000
0'
1&
02
11
1G
0J
#7500
1'
12
1J
1K
#10000
0'
0&
1$
02
01
16
1H
0G
0J
1N
1F
17
1%
#12500
1'
12
1J
0K
0N
0F
07
0%
#15000
0'
1&
02
11
1G
0J
#17500
1'
12
1J
1K
#20000
0'
0&
0$
1#
02
01
06
15
1I
0H
0G
0J
1N
0K
1F
0N
17
0F
1%
07
0%
#22500
1'
12
1J
1K
1N
1F
17
1%
#25000
0'
1&
02
11
1G
0J
0K
0N
0F
07
0%
#27500
1'
12
1J
1K
#30000
0'
0&
1$
02
01
16
1H
0G
0J
1N
1F
17
1%
#32500
1'
12
1J
#35000
0'
1&
02
11
1G
0J
0K
0N
0F
07
0%
#37500
1'
12
1J
1K
#40000
0'
0&
0$
0#
1"
02
01
06
05
14
1L
0I
0H
0G
0J
0K
1N
1F
0N
17
0F
1%
07
0%
#42500
1'
12
1J
#45000
0'
1&
02
11
1G
0J
1N
1F
17
1%
#47500
1'
12
1J
1K
0N
0F
07
0%
#50000
0'
0&
1$
02
01
16
1H
0G
0J
1N
1F
17
1%
#52500
1'
12
1J
0K
0N
0F
07
0%
#55000
0'
1&
02
11
1G
0J
1N
1F
17
1%
#57500
1'
12
1J
1K
0N
0F
07
0%
#60000
0'
0&
0$
1#
02
01
06
15
1I
0H
0G
0J
1N
0K
1F
0N
17
0F
1%
07
0%
#62500
1'
12
1J
1K
1N
1F
17
1%
#65000
0'
1&
02
11
1G
0J
0K
0N
0F
1N
07
1F
0%
17
1%
#67500
1'
12
1J
1K
0N
0F
07
0%
#70000
0'
0&
1$
02
01
16
1H
0G
0J
1N
1F
17
1%
#72500
1'
12
1J
#75000
0'
1&
02
11
1G
0J
0K
0N
0F
1N
07
1F
0%
17
1%
#77500
1'
12
1J
1K
0N
0F
07
0%
#80000
0'
0&
0$
0#
0"
1!
02
01
06
05
04
13
1M
0L
0I
0H
0G
0J
0K
1N
1F
0N
17
0F
1%
07
0%
#82500
1'
12
1J
#85000
0'
1&
02
11
1G
0J
#87500
1'
12
1J
1K
1N
1F
17
1%
#90000
0'
0&
1$
02
01
16
1H
0G
0J
#92500
1'
12
1J
0K
0N
0F
07
0%
#95000
0'
1&
02
11
1G
0J
#97500
1'
12
1J
1K
1N
1F
17
1%
#100000
0'
0&
0$
1#
02
01
06
15
1I
0H
0G
0J
0K
0N
0F
07
0%
#102500
1'
12
1J
1K
1N
1F
17
1%
#105000
0'
1&
02
11
1G
0J
0K
0N
0F
07
0%
#107500
1'
12
1J
1K
1N
1F
17
1%
#110000
0'
0&
1$
02
01
16
1H
0G
0J
#112500
1'
12
1J
#115000
0'
1&
02
11
1G
0J
0K
0N
0F
07
0%
#117500
1'
12
1J
1K
1N
1F
17
1%
#120000
0'
0&
0$
0#
1"
02
01
06
05
14
1L
0I
0H
0G
0J
0K
0N
0F
07
0%
#122500
1'
12
1J
#125000
0'
1&
02
11
1G
0J
1N
1F
17
1%
#127500
1'
12
1J
1K
#130000
0'
0&
1$
02
01
16
1H
0G
0J
#132500
1'
12
1J
0K
0N
0F
07
0%
#135000
0'
1&
02
11
1G
0J
1N
1F
17
1%
#137500
1'
12
1J
1K
#140000
0'
0&
0$
1#
02
01
06
15
1I
0H
0G
0J
0K
0N
0F
07
0%
#142500
1'
12
1J
1K
1N
1F
17
1%
#145000
0'
1&
02
11
1G
0J
0K
#147500
1'
12
1J
1K
#150000
0'
0&
1$
02
01
16
1H
0G
0J
#152500
1'
12
1J
#155000
0'
1&
02
11
1G
0J
0K
#157500
1'
12
1J
1K
