practica 0/sum/simulation/qsim/sum1.msim.vcd
$comment
	File created using the following command:
		vcd file sum1.msim.vcd -direction
$end
$date
	Sun Sep 04 22:40:20 2022
$end
$version
	ModelSim Version 10.5b
$end
$timescale
	1ps
$end

$scope module sum1_vhd_vec_tst $end
$var wire 1 ! a $end
$var wire 1 " b $end
$var wire 1 # cin $end
$var wire 1 $ cout $end
$var wire 1 % salsum $end

$scope module i1 $end
$var wire 1 & gnd $end
$var wire 1 ' vcc $end
$var wire 1 ( unknown $end
$var wire 1 ) devoe $end
$var wire 1 * devclrn $end
$var wire 1 + devpor $end
$var wire 1 , ww_devoe $end
$var wire 1 - ww_devclrn $end
$var wire 1 . ww_devpor $end
$var wire 1 / ww_a $end
$var wire 1 0 ww_b $end
$var wire 1 1 ww_cin $end
$var wire 1 2 ww_salsum $end
$var wire 1 3 ww_cout $end
$var wire 1 4 \~QUARTUS_CREATED_ADC1~_CHSEL_bus\ [4] $end
$var wire 1 5 \~QUARTUS_CREATED_ADC1~_CHSEL_bus\ [3] $end
$var wire 1 6 \~QUARTUS_CREATED_ADC1~_CHSEL_bus\ [2] $end
$var wire 1 7 \~QUARTUS_CREATED_ADC1~_CHSEL_bus\ [1] $end
$var wire 1 8 \~QUARTUS_CREATED_ADC1~_CHSEL_bus\ [0] $end
$var wire 1 9 \~QUARTUS_CREATED_ADC2~_CHSEL_bus\ [4] $end
$var wire 1 : \~QUARTUS_CREATED_ADC2~_CHSEL_bus\ [3] $end
$var wire 1 ; \~QUARTUS_CREATED_ADC2~_CHSEL_bus\ [2] $end
$var wire 1 < \~QUARTUS_CREATED_ADC2~_CHSEL_bus\ [1] $end
$var wire 1 = \~QUARTUS_CREATED_ADC2~_CHSEL_bus\ [0] $end
$var wire 1 > \~QUARTUS_CREATED_GND~I_combout\ $end
$var wire 1 ? \~QUARTUS_CREATED_UNVM~~busy\ $end
$var wire 1 @ \~QUARTUS_CREATED_ADC1~~eoc\ $end
$var wire 1 A \~QUARTUS_CREATED_ADC2~~eoc\ $end
$var wire 1 B \salsum~output_o\ $end
$var wire 1 C \cout~output_o\ $end
$var wire 1 D \a~input_o\ $end
$var wire 1 E \cin~input_o\ $end
$var wire 1 F \b~input_o\ $end
$var wire 1 G \salsum~0_combout\ $end
$var wire 1 H \cout~0_combout\ $end
$upscope $end
$upscope $end
$enddefinitions $end
#0
$dumpvars
0!
0"
0#
0$
0%
0&
1'
x(
1)
1*
1+
1,
1-
1.
0/
00
01
02
03
0>
z?
z@
zA
0B
0C
0D
0E
0F
0G
0H
04
05
06
07
08
09
0:
0;
0<
0=
$end
#100000
1#
11
1E
1G
1B
12
1%
#200000
0#
1"
01
10
1F
0E
#300000
1#
11
1E
0G
1H
1C
0B
13
02
1$
0%
#400000
0#
0"
1!
01
00
1/
1D
0F
0E
1G
0H
0C
1B
03
12
0$
1%
#500000
1#
11
1E
0G
1H
1C
0B
13
02
1$
0%
#600000
0#
1"
01
10
1F
0E
#700000
1#
11
1E
1G
1B
12
1%
#800000
0#
0"
0!
01
00
0/
0D
0F
0E
0G
0H
0C
0B
03
02
0$
0%
#900000
1#
11
1E
1G
1B
12
1%
