Tarea12/ejer64/simulation/qsim/ejer64.msim.vcd
$comment
	File created using the following command:
		vcd file ejer64.msim.vcd -direction
$end
$date
	Wed Oct 12 21:08:55 2022
$end
$version
	ModelSim Version 10.5b
$end
$timescale
	1ps
$end

$scope module ejer64_vhd_vec_tst $end
$var wire 1 ! clk $end
$var wire 1 " reset $end
$var wire 1 # salMoore [1] $end
$var wire 1 $ salMoore [0] $end

$scope module i1 $end
$var wire 1 % gnd $end
$var wire 1 & vcc $end
$var wire 1 ' unknown $end
$var wire 1 ( devoe $end
$var wire 1 ) devclrn $end
$var wire 1 * devpor $end
$var wire 1 + ww_devoe $end
$var wire 1 , ww_devclrn $end
$var wire 1 - ww_devpor $end
$var wire 1 . ww_clk $end
$var wire 1 / ww_reset $end
$var wire 1 0 ww_salMoore [1] $end
$var wire 1 1 ww_salMoore [0] $end
$var wire 1 2 \~QUARTUS_CREATED_ADC1~_CHSEL_bus\ [4] $end
$var wire 1 3 \~QUARTUS_CREATED_ADC1~_CHSEL_bus\ [3] $end
$var wire 1 4 \~QUARTUS_CREATED_ADC1~_CHSEL_bus\ [2] $end
$var wire 1 5 \~QUARTUS_CREATED_ADC1~_CHSEL_bus\ [1] $end
$var wire 1 6 \~QUARTUS_CREATED_ADC1~_CHSEL_bus\ [0] $end
$var wire 1 7 \~QUARTUS_CREATED_ADC2~_CHSEL_bus\ [4] $end
$var wire 1 8 \~QUARTUS_CREATED_ADC2~_CHSEL_bus\ [3] $end
$var wire 1 9 \~QUARTUS_CREATED_ADC2~_CHSEL_bus\ [2] $end
$var wire 1 : \~QUARTUS_CREATED_ADC2~_CHSEL_bus\ [1] $end
$var wire 1 ; \~QUARTUS_CREATED_ADC2~_CHSEL_bus\ [0] $end
$var wire 1 < \clk~inputclkctrl_INCLK_bus\ [3] $end
$var wire 1 = \clk~inputclkctrl_INCLK_bus\ [2] $end
$var wire 1 > \clk~inputclkctrl_INCLK_bus\ [1] $end
$var wire 1 ? \clk~inputclkctrl_INCLK_bus\ [0] $end
$var wire 1 @ \~QUARTUS_CREATED_GND~I_combout\ $end
$var wire 1 A \~QUARTUS_CREATED_UNVM~~busy\ $end
$var wire 1 B \~QUARTUS_CREATED_ADC1~~eoc\ $end
$var wire 1 C \~QUARTUS_CREATED_ADC2~~eoc\ $end
$var wire 1 D \salMoore[0]~output_o\ $end
$var wire 1 E \salMoore[1]~output_o\ $end
$var wire 1 F \clk~input_o\ $end
$var wire 1 G \clk~inputclkctrl_outclk\ $end
$var wire 1 H \reset~input_o\ $end
$var wire 1 I \present_state~0_combout\ $end
$var wire 1 J \present_state~1_combout\ $end
$var wire 1 K present_state [1] $end
$var wire 1 L present_state [0] $end
$upscope $end
$upscope $end
$enddefinitions $end
#0
$dumpvars
0!
0"
0%
1&
x'
1(
1)
1*
1+
1,
1-
0.
0/
0@
zA
zB
zC
0D
0E
0F
0G
0H
1I
0J
00
01
0K
0L
1<
1=
1>
0?
02
03
04
05
06
07
08
09
0:
0;
0#
0$
$end
#10000
1!
1.
1F
1?
1G
1L
1D
0I
1J
11
1$
#20000
0!
0.
0F
0?
0G
#30000
1!
1.
1F
1?
1G
0L
1K
1E
0D
1I
10
01
0$
1#
#40000
0!
0.
0F
0?
0G
#50000
1!
1.
1F
1?
1G
1L
1D
0I
0J
11
1$
#60000
0!
0.
0F
0?
0G
#70000
1!
1.
1F
1?
1G
0L
0K
0E
0D
1I
00
01
0$
0#
#80000
0!
0.
0F
0?
0G
#90000
1!
1"
1.
1/
1H
1F
1?
0I
1G
#100000
0!
0"
0.
0/
0H
0F
0?
1I
0G
#110000
1!
1.
1F
1?
1G
1L
1D
0I
1J
11
1$
#120000
0!
0.
0F
0?
0G
#130000
1!
1.
1F
1?
1G
0L
1K
1E
0D
1I
10
01
0$
1#
#140000
0!
0.
0F
0?
0G
#150000
1!
1.
1F
1?
1G
1L
1D
0I
0J
11
1$
#160000
0!
0.
0F
0?
0G
#170000
1!
1.
1F
1?
1G
0L
0K
0E
0D
1I
00
01
0$
0#
#180000
0!
0.
0F
0?
0G
#190000
1!
1.
1F
1?
1G
1L
1D
0I
1J
11
1$
#200000
0!
0.
0F
0?
0G
#210000
1!
1.
1F
1?
1G
0L
1K
1E
0D
1I
10
01
0$
1#
#220000
0!
0.
0F
0?
0G
#230000
1!
1.
1F
1?
1G
1L
1D
0I
0J
11
1$
#240000
0!
0.
0F
0?
0G
#250000
1!
1.
1F
1?
1G
0L
0K
0E
0D
1I
00
01
0$
0#
#260000
0!
0.
0F
0?
0G
#270000
1!
1.
1F
1?
1G
1L
1D
0I
1J
11
1$
#280000
0!
0.
0F
0?
0G
#290000
1!
1.
1F
1?
1G
0L
1K
1E
0D
1I
10
01
0$
1#
#300000
0!
0.
0F
0?
0G
#310000
1!
1.
1F
1?
1G
1L
1D
0I
0J
11
1$
#320000
0!
0.
0F
0?
0G
#330000
1!
1.
1F
1?
1G
0L
0K
0E
0D
1I
00
01
0$
0#
#340000
0!
0.
0F
0?
0G
#350000
1!
1.
1F
1?
1G
1L
1D
0I
1J
11
1$
#360000
0!
0.
0F
0?
0G
#370000
1!
1.
1F
1?
1G
0L
1K
1E
0D
1I
10
01
0$
1#
#380000
0!
0.
0F
0?
0G
#390000
1!
1.
1F
1?
1G
1L
1D
0I
0J
11
1$
#400000
0!
0.
0F
0?
0G
#410000
1!
1.
1F
1?
1G
0L
0K
0E
0D
1I
00
01
0$
0#
#420000
0!
0.
0F
0?
0G
#430000
1!
1.
1F
1?
1G
1L
1D
0I
1J
11
1$
#440000
0!
0.
0F
0?
0G
#450000
1!
1.
1F
1?
1G
0L
1K
1E
0D
1I
10
01
0$
1#
#460000
0!
0.
0F
0?
0G
#470000
1!
1.
1F
1?
1G
1L
1D
0I
0J
11
1$
#480000
0!
0.
0F
0?
0G
#490000
1!
1.
1F
1?
1G
0L
0K
0E
0D
1I
00
01
0$
0#
#500000
0!
0.
0F
0?
0G
#510000
1!
1.
1F
1?
1G
1L
1D
0I
1J
11
1$
#520000
0!
0.
0F
0?
0G
#530000
1!
1.
1F
1?
1G
0L
1K
1E
0D
1I
10
01
0$
1#
#540000
0!
0.
0F
0?
0G
#550000
1!
1.
1F
1?
1G
1L
1D
0I
0J
11
1$
#560000
0!
0.
0F
0?
0G
#570000
1!
1.
1F
1?
1G
0L
0K
0E
0D
1I
00
01
0$
0#
#580000
0!
0.
0F
0?
0G
#590000
1!
1.
1F
1?
1G
1L
1D
0I
1J
11
1$
#600000
0!
0.
0F
0?
0G
#610000
1!
1.
1F
1?
1G
0L
1K
1E
0D
1I
10
01
0$
1#
#620000
0!
0.
0F
0?
0G
#630000
1!
1.
1F
1?
1G
1L
1D
0I
0J
11
1$
#640000
0!
0.
0F
0?
0G
#650000
1!
1.
1F
1?
1G
0L
0K
0E
0D
1I
00
01
0$
0#
#660000
0!
0.
0F
0?
0G
#670000
1!
1.
1F
1?
1G
1L
1D
0I
1J
11
1$
#680000
0!
0.
0F
0?
0G
#690000
1!
1.
1F
1?
1G
0L
1K
1E
0D
1I
10
01
0$
1#
#700000
0!
0.
0F
0?
0G
#710000
1!
1.
1F
1?
1G
1L
1D
0I
0J
11
1$
#720000
0!
0.
0F
0?
0G
#730000
1!
1.
1F
1?
1G
0L
0K
0E
0D
1I
00
01
0$
0#
#740000
0!
0.
0F
0?
0G
#750000
1!
1.
1F
1?
1G
1L
1D
0I
1J
11
1$
#760000
0!
0.
0F
0?
0G
#770000
1!
1.
1F
1?
1G
0L
1K
1E
0D
1I
10
01
0$
1#
#780000
0!
0.
0F
0?
0G
#790000
1!
1.
1F
1?
1G
1L
1D
0I
0J
11
1$
#800000
0!
0.
0F
0?
0G
#810000
1!
1.
1F
1?
1G
0L
0K
0E
0D
1I
00
01
0$
0#
#820000
0!
0.
0F
0?
0G
#830000
1!
1.
1F
1?
1G
1L
1D
0I
1J
11
1$
#840000
0!
0.
0F
0?
0G
#850000
1!
1.
1F
1?
1G
0L
1K
1E
0D
1I
10
01
0$
1#
#860000
0!
0.
0F
0?
0G
#870000
1!
1.
1F
1?
1G
1L
1D
0I
0J
11
1$
#880000
0!
0.
0F
0?
0G
#890000
1!
1.
1F
1?
1G
0L
0K
0E
0D
1I
00
01
0$
0#
#900000
0!
0.
0F
0?
0G
#910000
1!
1.
1F
1?
1G
1L
1D
0I
1J
11
1$
#920000
0!
0.
0F
0?
0G
#930000
1!
1.
1F
1?
1G
0L
1K
1E
0D
1I
10
01
0$
1#
#940000
0!
0.
0F
0?
0G
#950000
1!
1.
1F
1?
1G
1L
1D
0I
0J
11
1$
#960000
0!
0.
0F
0?
0G
#970000
1!
1.
1F
1?
1G
0L
0K
0E
0D
1I
00
01
0$
0#
#980000
0!
0.
0F
0?
0G
#990000
1!
1.
1F
1?
1G
1L
1D
0I
1J
11
1$
