practica 4/PruebaPWM/simulation/qsim/pruebaPWM.msim.vcd
$comment
	File created using the following command:
		vcd file pruebaPWM.msim.vcd -direction
$end
$date
	Sun Oct 16 14:42:14 2022
$end
$version
	ModelSim Version 10.5b
$end
$timescale
	1ps
$end

$scope module pruebapwm_vhd_vec_tst $end
$var wire 1 ! clk $end
$var wire 1 " duty [3] $end
$var wire 1 # duty [2] $end
$var wire 1 $ duty [1] $end
$var wire 1 % duty [0] $end
$var wire 1 & snl $end

$scope module i1 $end
$var wire 1 ' gnd $end
$var wire 1 ( vcc $end
$var wire 1 ) unknown $end
$var wire 1 * devoe $end
$var wire 1 + devclrn $end
$var wire 1 , devpor $end
$var wire 1 - ww_devoe $end
$var wire 1 . ww_devclrn $end
$var wire 1 / ww_devpor $end
$var wire 1 0 ww_clk $end
$var wire 1 1 ww_duty [3] $end
$var wire 1 2 ww_duty [2] $end
$var wire 1 3 ww_duty [1] $end
$var wire 1 4 ww_duty [0] $end
$var wire 1 5 ww_snl $end
$var wire 1 6 \~QUARTUS_CREATED_ADC1~_CHSEL_bus\ [4] $end
$var wire 1 7 \~QUARTUS_CREATED_ADC1~_CHSEL_bus\ [3] $end
$var wire 1 8 \~QUARTUS_CREATED_ADC1~_CHSEL_bus\ [2] $end
$var wire 1 9 \~QUARTUS_CREATED_ADC1~_CHSEL_bus\ [1] $end
$var wire 1 : \~QUARTUS_CREATED_ADC1~_CHSEL_bus\ [0] $end
$var wire 1 ; \~QUARTUS_CREATED_ADC2~_CHSEL_bus\ [4] $end
$var wire 1 < \~QUARTUS_CREATED_ADC2~_CHSEL_bus\ [3] $end
$var wire 1 = \~QUARTUS_CREATED_ADC2~_CHSEL_bus\ [2] $end
$var wire 1 > \~QUARTUS_CREATED_ADC2~_CHSEL_bus\ [1] $end
$var wire 1 ? \~QUARTUS_CREATED_ADC2~_CHSEL_bus\ [0] $end
$var wire 1 @ \clk~inputclkctrl_INCLK_bus\ [3] $end
$var wire 1 A \clk~inputclkctrl_INCLK_bus\ [2] $end
$var wire 1 B \clk~inputclkctrl_INCLK_bus\ [1] $end
$var wire 1 C \clk~inputclkctrl_INCLK_bus\ [0] $end
$var wire 1 D \~QUARTUS_CREATED_GND~I_combout\ $end
$var wire 1 E \~QUARTUS_CREATED_UNVM~~busy\ $end
$var wire 1 F \~QUARTUS_CREATED_ADC1~~eoc\ $end
$var wire 1 G \~QUARTUS_CREATED_ADC2~~eoc\ $end
$var wire 1 H \snl~output_o\ $end
$var wire 1 I \clk~input_o\ $end
$var wire 1 J \clk~inputclkctrl_outclk\ $end
$var wire 1 K \duty[3]~input_o\ $end
$var wire 1 L \conteo[0]~3_combout\ $end
$var wire 1 M \conteo[1]~2_combout\ $end
$var wire 1 N \conteo[2]~1_combout\ $end
$var wire 1 O \conteo[3]~0_combout\ $end
$var wire 1 P \duty[2]~input_o\ $end
$var wire 1 Q \duty[1]~input_o\ $end
$var wire 1 R \duty[0]~input_o\ $end
$var wire 1 S \LessThan0~0_combout\ $end
$var wire 1 T \LessThan0~1_combout\ $end
$var wire 1 U \LessThan0~2_combout\ $end
$var wire 1 V \snl~reg0_q\ $end
$var wire 1 W conteo [3] $end
$var wire 1 X conteo [2] $end
$var wire 1 Y conteo [1] $end
$var wire 1 Z conteo [0] $end
$upscope $end
$upscope $end
$enddefinitions $end
#0
$dumpvars
0!
0&
0'
1(
x)
1*
1+
1,
1-
1.
1/
00
05
0D
zE
zF
zG
0H
0I
0J
1K
1L
0M
0N
0O
0P
1Q
0R
0S
0T
1U
0V
1"
0#
1$
0%
11
02
13
04
0W
0X
0Y
0Z
1@
1A
1B
0C
06
07
08
09
0:
0;
0<
0=
0>
0?
$end
#10000
1!
10
1I
1C
1J
1Z
1V
1H
0L
1M
15
1&
#20000
0!
00
0I
0C
0J
#30000
1!
10
1I
1C
1J
0Z
1Y
1L
#40000
0!
00
0I
0C
0J
#50000
1!
10
1I
1C
1J
1Z
0L
0M
1N
1S
1T
#60000
0!
00
0I
0C
0J
#70000
1!
10
1I
1C
1J
0Z
0Y
1X
1L
0S
#80000
0!
00
0I
0C
0J
#90000
1!
10
1I
1C
1J
1Z
0L
1M
#100000
0!
00
0I
0C
0J
#110000
1!
10
1I
1C
1J
0Z
1Y
1L
#120000
0!
00
0I
0C
0J
#130000
1!
10
1I
1C
1J
1Z
0L
0M
0N
1O
1S
#140000
0!
00
0I
0C
0J
#150000
1!
10
1I
1C
1J
0Z
0Y
0X
1W
0U
1L
0S
0T
1U
#160000
0!
00
0I
0C
0J
#170000
1!
10
1I
1C
1J
1Z
0L
1M
#180000
0!
00
0I
0C
0J
#190000
1!
10
1I
1C
1J
0Z
1Y
1L
#200000
0!
00
0I
0C
0J
#210000
1!
10
1I
1C
1J
1Z
0L
0M
1N
1S
1T
0U
#220000
0!
00
0I
0C
0J
#230000
1!
10
1I
1C
1J
0Z
0Y
1X
0V
0H
1L
0S
05
0&
#240000
0!
00
0I
0C
0J
#250000
1!
10
1I
1C
1J
1Z
0L
1M
#260000
0!
00
0I
0C
0J
#270000
1!
10
1I
1C
1J
0Z
1Y
1L
#280000
0!
00
0I
0C
0J
#290000
1!
10
1I
1C
1J
1Z
0L
0M
0N
0O
1S
#300000
0!
00
0I
0C
0J
#310000
1!
10
1I
1C
1J
0Z
0Y
0X
0W
1U
1L
0S
0T
#320000
0!
00
0I
0C
0J
#330000
1!
10
1I
1C
1J
1Z
1V
1H
0L
1M
15
1&
#340000
0!
00
0I
0C
0J
#350000
1!
10
1I
1C
1J
0Z
1Y
1L
#360000
0!
00
0I
0C
0J
#370000
1!
10
1I
1C
1J
1Z
0L
0M
1N
1S
1T
#380000
0!
00
0I
0C
0J
#390000
1!
10
1I
1C
1J
0Z
0Y
1X
1L
0S
#400000
0!
00
0I
0C
0J
#410000
1!
10
1I
1C
1J
1Z
0L
1M
#420000
0!
00
0I
0C
0J
#430000
1!
10
1I
1C
1J
0Z
1Y
1L
#440000
0!
00
0I
0C
0J
#450000
1!
10
1I
1C
1J
1Z
0L
0M
0N
1O
1S
#460000
0!
00
0I
0C
0J
#470000
1!
10
1I
1C
1J
0Z
0Y
0X
1W
0U
1L
0S
0T
1U
#480000
0!
00
0I
0C
0J
#490000
1!
10
1I
1C
1J
1Z
0L
1M
#500000
0!
00
0I
0C
0J
#510000
1!
10
1I
1C
1J
0Z
1Y
1L
#520000
0!
00
0I
0C
0J
#530000
1!
10
1I
1C
1J
1Z
0L
0M
1N
1S
1T
0U
#540000
0!
00
0I
0C
0J
#550000
1!
10
1I
1C
1J
0Z
0Y
1X
0V
0H
1L
0S
05
0&
#560000
0!
00
0I
0C
0J
#570000
1!
10
1I
1C
1J
1Z
0L
1M
#580000
0!
00
0I
0C
0J
#590000
1!
10
1I
1C
1J
0Z
1Y
1L
#600000
0!
00
0I
0C
0J
#610000
1!
10
1I
1C
1J
1Z
0L
0M
0N
0O
1S
#620000
0!
00
0I
0C
0J
#630000
1!
10
1I
1C
1J
0Z
0Y
0X
0W
1U
1L
0S
0T
#640000
0!
00
0I
0C
0J
#650000
1!
10
1I
1C
1J
1Z
1V
1H
0L
1M
15
1&
#660000
0!
00
0I
0C
0J
#670000
1!
10
1I
1C
1J
0Z
1Y
1L
#680000
0!
00
0I
0C
0J
#690000
1!
10
1I
1C
1J
1Z
0L
0M
1N
1S
1T
#700000
0!
00
0I
0C
0J
#710000
1!
10
1I
1C
1J
0Z
0Y
1X
1L
0S
#720000
0!
00
0I
0C
0J
#730000
1!
10
1I
1C
1J
1Z
0L
1M
#740000
0!
00
0I
0C
0J
#750000
1!
10
1I
1C
1J
0Z
1Y
1L
#760000
0!
00
0I
0C
0J
#770000
1!
10
1I
1C
1J
1Z
0L
0M
0N
1O
1S
#780000
0!
00
0I
0C
0J
#790000
1!
10
1I
1C
1J
0Z
0Y
0X
1W
0U
1L
0S
0T
1U
#800000
0!
00
0I
0C
0J
#810000
1!
10
1I
1C
1J
1Z
0L
1M
#820000
0!
00
0I
0C
0J
#830000
1!
10
1I
1C
1J
0Z
1Y
1L
#840000
0!
00
0I
0C
0J
#850000
1!
10
1I
1C
1J
1Z
0L
0M
1N
1S
1T
0U
#860000
0!
00
0I
0C
0J
#870000
1!
10
1I
1C
1J
0Z
0Y
1X
0V
0H
1L
0S
05
0&
#880000
0!
00
0I
0C
0J
#890000
1!
10
1I
1C
1J
1Z
0L
1M
#900000
0!
00
0I
0C
0J
#910000
1!
10
1I
1C
1J
0Z
1Y
1L
#920000
0!
00
0I
0C
0J
#930000
1!
10
1I
1C
1J
1Z
0L
0M
0N
0O
1S
#940000
0!
00
0I
0C
0J
#950000
1!
10
1I
1C
1J
0Z
0Y
0X
0W
1U
1L
0S
0T
#960000
0!
00
0I
0C
0J
#970000
1!
10
1I
1C
1J
1Z
1V
1H
0L
1M
15
1&
#980000
0!
00
0I
0C
0J
#990000
1!
10
1I
1C
1J
0Z
1Y
1L
