Tarea13/ContadorJK/simulation/qsim/ContaodrJK.msim.vcd
$comment
	File created using the following command:
		vcd file ContaodrJK.msim.vcd -direction
$end
$date
	Wed Oct 19 23:03:39 2022
$end
$version
	ModelSim Version 10.5b
$end
$timescale
	1ps
$end

$scope module contaodrjk_vhd_vec_tst $end
$var wire 1 ! clk $end
$var wire 1 " Q [3] $end
$var wire 1 # Q [2] $end
$var wire 1 $ Q [1] $end
$var wire 1 % Q [0] $end
$var wire 1 & reset $end

$scope module i1 $end
$var wire 1 ' gnd $end
$var wire 1 ( vcc $end
$var wire 1 ) unknown $end
$var wire 1 * devoe $end
$var wire 1 + devclrn $end
$var wire 1 , devpor $end
$var wire 1 - ww_devoe $end
$var wire 1 . ww_devclrn $end
$var wire 1 / ww_devpor $end
$var wire 1 0 ww_clk $end
$var wire 1 1 ww_reset $end
$var wire 1 2 ww_Q [3] $end
$var wire 1 3 ww_Q [2] $end
$var wire 1 4 ww_Q [1] $end
$var wire 1 5 ww_Q [0] $end
$var wire 1 6 \~QUARTUS_CREATED_ADC1~_CHSEL_bus\ [4] $end
$var wire 1 7 \~QUARTUS_CREATED_ADC1~_CHSEL_bus\ [3] $end
$var wire 1 8 \~QUARTUS_CREATED_ADC1~_CHSEL_bus\ [2] $end
$var wire 1 9 \~QUARTUS_CREATED_ADC1~_CHSEL_bus\ [1] $end
$var wire 1 : \~QUARTUS_CREATED_ADC1~_CHSEL_bus\ [0] $end
$var wire 1 ; \~QUARTUS_CREATED_ADC2~_CHSEL_bus\ [4] $end
$var wire 1 < \~QUARTUS_CREATED_ADC2~_CHSEL_bus\ [3] $end
$var wire 1 = \~QUARTUS_CREATED_ADC2~_CHSEL_bus\ [2] $end
$var wire 1 > \~QUARTUS_CREATED_ADC2~_CHSEL_bus\ [1] $end
$var wire 1 ? \~QUARTUS_CREATED_ADC2~_CHSEL_bus\ [0] $end
$var wire 1 @ \clk~inputclkctrl_INCLK_bus\ [3] $end
$var wire 1 A \clk~inputclkctrl_INCLK_bus\ [2] $end
$var wire 1 B \clk~inputclkctrl_INCLK_bus\ [1] $end
$var wire 1 C \clk~inputclkctrl_INCLK_bus\ [0] $end
$var wire 1 D \~QUARTUS_CREATED_GND~I_combout\ $end
$var wire 1 E \~QUARTUS_CREATED_UNVM~~busy\ $end
$var wire 1 F \~QUARTUS_CREATED_ADC1~~eoc\ $end
$var wire 1 G \~QUARTUS_CREATED_ADC2~~eoc\ $end
$var wire 1 H \Q[0]~output_o\ $end
$var wire 1 I \Q[1]~output_o\ $end
$var wire 1 J \Q[2]~output_o\ $end
$var wire 1 K \Q[3]~output_o\ $end
$var wire 1 L \clk~input_o\ $end
$var wire 1 M \clk~inputclkctrl_outclk\ $end
$var wire 1 N \reset~input_o\ $end
$var wire 1 O \present_state~0_combout\ $end
$var wire 1 P \present_state~1_combout\ $end
$var wire 1 Q \present_state~2_combout\ $end
$var wire 1 R \present_state~3_combout\ $end
$var wire 1 S \present_state~4_combout\ $end
$var wire 1 T present_state [3] $end
$var wire 1 U present_state [2] $end
$var wire 1 V present_state [1] $end
$var wire 1 W present_state [0] $end
$upscope $end
$upscope $end
$enddefinitions $end
#0
$dumpvars
0!
0&
0'
1(
x)
1*
1+
1,
1-
1.
1/
00
01
0D
zE
zF
zG
0H
0I
0J
0K
0L
0M
0N
1O
0P
0Q
1R
0S
02
03
04
05
0T
0U
0V
0W
1@
1A
1B
0C
06
07
08
09
0:
0;
0<
0=
0>
0?
0"
0#
0$
0%
$end
#10000
1!
10
1L
1C
1M
1W
1H
0O
1P
15
1%
#20000
0!
00
0L
0C
0M
#30000
1!
10
1L
1C
1M
0W
1V
1I
0H
1O
14
05
0%
1$
#40000
0!
00
0L
0C
0M
#50000
1!
10
1L
1C
1M
1W
1H
0O
0P
1Q
15
1%
#60000
0!
00
0L
0C
0M
#70000
1!
10
1L
1C
1M
0W
0V
1U
1J
0I
0H
1O
13
04
05
0%
0$
1#
#80000
0!
00
0L
0C
0M
#90000
1!
10
1L
1C
1M
1W
1H
0O
1P
15
1%
#100000
0!
00
0L
0C
0M
#110000
1!
10
1L
1C
1M
0W
1V
1I
0H
0R
1O
14
05
0%
1$
#120000
0!
00
0L
0C
0M
#130000
1!
10
1L
1C
1M
1W
1H
0O
0P
0Q
1S
15
1%
#140000
0!
00
0L
0C
0M
#150000
1!
10
1L
1C
1M
0W
0V
0U
1T
1K
0J
0I
0H
1R
1O
12
03
04
05
0%
0$
0#
1"
#160000
0!
00
0L
0C
0M
#170000
1!
10
1L
1C
1M
1W
1H
0O
1P
15
1%
#180000
0!
00
0L
0C
0M
#190000
1!
10
1L
1C
1M
0W
1V
1I
0H
1O
14
05
0%
1$
#200000
0!
00
0L
0C
0M
#210000
1!
10
1L
1C
1M
1W
1H
0O
0P
1Q
15
1%
#220000
0!
00
0L
0C
0M
#230000
1!
10
1L
1C
1M
0W
0V
1U
1J
0I
0H
1O
13
04
05
0%
0$
1#
#240000
0!
00
0L
0C
0M
#250000
1!
10
1L
1C
1M
1W
1H
0O
1P
15
1%
#260000
0!
00
0L
0C
0M
#270000
1!
10
1L
1C
1M
0W
1V
1I
0H
0R
1O
14
05
0%
1$
#280000
0!
00
0L
0C
0M
#290000
1!
10
1L
1C
1M
1W
1H
0O
0P
0Q
0S
15
1%
#300000
0!
00
0L
0C
0M
#310000
1!
10
1L
1C
1M
0W
0V
0U
0T
0K
0J
0I
0H
1R
1O
02
03
04
05
0%
0$
0#
0"
#320000
0!
00
0L
0C
0M
#330000
1!
10
1L
1C
1M
1W
1H
0O
1P
15
1%
#340000
0!
00
0L
0C
0M
#350000
1!
10
1L
1C
1M
0W
1V
1I
0H
1O
14
05
0%
1$
#360000
0!
00
0L
0C
0M
#370000
1!
10
1L
1C
1M
1W
1H
0O
0P
1Q
15
1%
#380000
0!
00
0L
0C
0M
#390000
1!
10
1L
1C
1M
0W
0V
1U
1J
0I
0H
1O
13
04
05
0%
0$
1#
#400000
0!
00
0L
0C
0M
#410000
1!
10
1L
1C
1M
1W
1H
0O
1P
15
1%
#420000
0!
00
0L
0C
0M
#430000
1!
10
1L
1C
1M
0W
1V
1I
0H
0R
1O
14
05
0%
1$
#440000
0!
00
0L
0C
0M
#450000
1!
10
1L
1C
1M
1W
1H
0O
0P
0Q
1S
15
1%
#460000
0!
00
0L
0C
0M
#470000
1!
10
1L
1C
1M
0W
0V
0U
1T
1K
0J
0I
0H
1R
1O
12
03
04
05
0%
0$
0#
1"
#480000
0!
00
0L
0C
0M
#490000
1!
10
1L
1C
1M
1W
1H
0O
1P
15
1%
#500000
0!
00
0L
0C
0M
#510000
1!
10
1L
1C
1M
0W
1V
1I
0H
1O
14
05
0%
1$
#520000
0!
00
0L
0C
0M
#530000
1!
10
1L
1C
1M
1W
1H
0O
0P
1Q
15
1%
#540000
0!
00
0L
0C
0M
#550000
1!
10
1L
1C
1M
0W
0V
1U
1J
0I
0H
1O
13
04
05
0%
0$
1#
#560000
0!
00
0L
0C
0M
#570000
1!
10
1L
1C
1M
1W
1H
0O
1P
15
1%
#580000
0!
00
0L
0C
0M
#590000
1!
10
1L
1C
1M
0W
1V
1I
0H
0R
1O
14
05
0%
1$
#600000
0!
00
0L
0C
0M
#610000
1!
10
1L
1C
1M
1W
1H
0O
0P
0Q
0S
15
1%
#620000
0!
00
0L
0C
0M
#630000
1!
10
1L
1C
1M
0W
0V
0U
0T
0K
0J
0I
0H
1R
1O
02
03
04
05
0%
0$
0#
0"
#640000
0!
00
0L
0C
0M
#650000
1!
10
1L
1C
1M
1W
1H
0O
1P
15
1%
#660000
0!
00
0L
0C
0M
#670000
1!
10
1L
1C
1M
0W
1V
1I
0H
1O
14
05
0%
1$
#680000
0!
00
0L
0C
0M
#690000
1!
10
1L
1C
1M
1W
1H
0O
0P
1Q
15
1%
#700000
0!
00
0L
0C
0M
#710000
1!
10
1L
1C
1M
0W
0V
1U
1J
0I
0H
1O
13
04
05
0%
0$
1#
#720000
0!
00
0L
0C
0M
#730000
1!
10
1L
1C
1M
1W
1H
0O
1P
15
1%
#740000
0!
00
0L
0C
0M
#750000
1!
10
1L
1C
1M
0W
1V
1I
0H
0R
1O
14
05
0%
1$
#760000
0!
00
0L
0C
0M
#770000
1!
10
1L
1C
1M
1W
1H
0O
0P
0Q
1S
15
1%
#780000
0!
00
0L
0C
0M
#790000
1!
10
1L
1C
1M
0W
0V
0U
1T
1K
0J
0I
0H
1R
1O
12
03
04
05
0%
0$
0#
1"
#800000
0!
00
0L
0C
0M
#810000
1!
10
1L
1C
1M
1W
1H
0O
1P
15
1%
#820000
0!
00
0L
0C
0M
#830000
1!
10
1L
1C
1M
0W
1V
1I
0H
1O
14
05
0%
1$
#840000
0!
00
0L
0C
0M
#850000
1!
10
1L
1C
1M
1W
1H
0O
0P
1Q
15
1%
#860000
0!
00
0L
0C
0M
#870000
1!
10
1L
1C
1M
0W
0V
1U
1J
0I
0H
1O
13
04
05
0%
0$
1#
#880000
0!
00
0L
0C
0M
#890000
1!
10
1L
1C
1M
1W
1H
0O
1P
15
1%
#900000
0!
00
0L
0C
0M
#910000
1!
10
1L
1C
1M
0W
1V
1I
0H
0R
1O
14
05
0%
1$
#920000
0!
00
0L
0C
0M
#930000
1!
10
1L
1C
1M
1W
1H
0O
0P
0Q
0S
15
1%
#940000
0!
00
0L
0C
0M
#950000
1!
10
1L
1C
1M
0W
0V
0U
0T
0K
0J
0I
0H
1R
1O
02
03
04
05
0%
0$
0#
0"
#960000
0!
00
0L
0C
0M
#970000
1!
10
1L
1C
1M
1W
1H
0O
1P
15
1%
#980000
0!
00
0L
0C
0M
#990000
1!
10
1L
1C
1M
0W
1V
1I
0H
1O
14
05
0%
1$
