Tarea12/FFD/simulation/qsim/FFD.msim.vcd
$comment
	File created using the following command:
		vcd file FFD.msim.vcd -direction
$end
$date
	Wed Oct 12 20:51:25 2022
$end
$version
	ModelSim Version 10.5b
$end
$timescale
	1ps
$end

$scope module ejer63_vhd_vec_tst $end
$var wire 1 ! clk $end
$var wire 1 " Q0 $end
$var wire 1 # Q1 $end

$scope module i1 $end
$var wire 1 $ gnd $end
$var wire 1 % vcc $end
$var wire 1 & unknown $end
$var wire 1 ' devoe $end
$var wire 1 ( devclrn $end
$var wire 1 ) devpor $end
$var wire 1 * ww_devoe $end
$var wire 1 + ww_devclrn $end
$var wire 1 , ww_devpor $end
$var wire 1 - ww_clk $end
$var wire 1 . \~QUARTUS_CREATED_ADC1~_CHSEL_bus\ [4] $end
$var wire 1 / \~QUARTUS_CREATED_ADC1~_CHSEL_bus\ [3] $end
$var wire 1 0 \~QUARTUS_CREATED_ADC1~_CHSEL_bus\ [2] $end
$var wire 1 1 \~QUARTUS_CREATED_ADC1~_CHSEL_bus\ [1] $end
$var wire 1 2 \~QUARTUS_CREATED_ADC1~_CHSEL_bus\ [0] $end
$var wire 1 3 \~QUARTUS_CREATED_ADC2~_CHSEL_bus\ [4] $end
$var wire 1 4 \~QUARTUS_CREATED_ADC2~_CHSEL_bus\ [3] $end
$var wire 1 5 \~QUARTUS_CREATED_ADC2~_CHSEL_bus\ [2] $end
$var wire 1 6 \~QUARTUS_CREATED_ADC2~_CHSEL_bus\ [1] $end
$var wire 1 7 \~QUARTUS_CREATED_ADC2~_CHSEL_bus\ [0] $end
$var wire 1 8 \clk~inputclkctrl_INCLK_bus\ [3] $end
$var wire 1 9 \clk~inputclkctrl_INCLK_bus\ [2] $end
$var wire 1 : \clk~inputclkctrl_INCLK_bus\ [1] $end
$var wire 1 ; \clk~inputclkctrl_INCLK_bus\ [0] $end
$var wire 1 < \Q0~input_o\ $end
$var wire 1 = \Q1~input_o\ $end
$var wire 1 > \~QUARTUS_CREATED_GND~I_combout\ $end
$var wire 1 ? \~QUARTUS_CREATED_UNVM~~busy\ $end
$var wire 1 @ \~QUARTUS_CREATED_ADC1~~eoc\ $end
$var wire 1 A \~QUARTUS_CREATED_ADC2~~eoc\ $end
$var wire 1 B \Q0~output_o\ $end
$var wire 1 C \Q1~output_o\ $end
$var wire 1 D \clk~input_o\ $end
$var wire 1 E \clk~inputclkctrl_outclk\ $end
$var wire 1 F \u1|D1~0_combout\ $end
$var wire 1 G \u3|Q~q\ $end
$var wire 1 H \u2|Q~0_combout\ $end
$var wire 1 I \u2|Q~q\ $end
$upscope $end
$upscope $end
$enddefinitions $end
#0
$dumpvars
0!
0"
0#
0$
1%
x&
1'
1(
1)
1*
1+
1,
0-
0<
0=
0>
z?
z@
zA
0B
0C
0D
0E
0F
0G
1H
0I
18
19
1:
0;
0.
0/
00
01
02
03
04
05
06
07
$end
#10000
1!
1-
1D
1;
1E
1I
1B
1F
1"
1<
#20000
0!
0-
0D
0;
0E
#30000
1!
1-
1D
1;
1E
1G
1C
0F
0H
1#
1=
#40000
0!
0-
0D
0;
0E
#50000
1!
1-
1D
1;
1E
0G
0I
0B
0C
1H
0"
0#
0=
0<
#60000
0!
0-
0D
0;
0E
#70000
1!
1-
1D
1;
1E
1I
1B
1F
1"
1<
#80000
0!
0-
0D
0;
0E
#90000
1!
1-
1D
1;
1E
1G
1C
0F
0H
1#
1=
#100000
0!
0-
0D
0;
0E
#110000
1!
1-
1D
1;
1E
0G
0I
0B
0C
1H
0"
0#
0=
0<
#120000
0!
0-
0D
0;
0E
#130000
1!
1-
1D
1;
1E
1I
1B
1F
1"
1<
#140000
0!
0-
0D
0;
0E
#150000
1!
1-
1D
1;
1E
1G
1C
0F
0H
1#
1=
#160000
0!
0-
0D
0;
0E
#170000
1!
1-
1D
1;
1E
0G
0I
0B
0C
1H
0"
0#
0=
0<
#180000
0!
0-
0D
0;
0E
#190000
1!
1-
1D
1;
1E
1I
1B
1F
1"
1<
#200000
0!
0-
0D
0;
0E
#210000
1!
1-
1D
1;
1E
1G
1C
0F
0H
1#
1=
#220000
0!
0-
0D
0;
0E
#230000
1!
1-
1D
1;
1E
0G
0I
0B
0C
1H
0"
0#
0=
0<
#240000
0!
0-
0D
0;
0E
#250000
1!
1-
1D
1;
1E
1I
1B
1F
1"
1<
#260000
0!
0-
0D
0;
0E
#270000
1!
1-
1D
1;
1E
1G
1C
0F
0H
1#
1=
#280000
0!
0-
0D
0;
0E
#290000
1!
1-
1D
1;
1E
0G
0I
0B
0C
1H
0"
0#
0=
0<
#300000
0!
0-
0D
0;
0E
#310000
1!
1-
1D
1;
1E
1I
1B
1F
1"
1<
#320000
0!
0-
0D
0;
0E
#330000
1!
1-
1D
1;
1E
1G
1C
0F
0H
1#
1=
#340000
0!
0-
0D
0;
0E
#350000
1!
1-
1D
1;
1E
0G
0I
0B
0C
1H
0"
0#
0=
0<
#360000
0!
0-
0D
0;
0E
#370000
1!
1-
1D
1;
1E
1I
1B
1F
1"
1<
#380000
0!
0-
0D
0;
0E
#390000
1!
1-
1D
1;
1E
1G
1C
0F
0H
1#
1=
#400000
0!
0-
0D
0;
0E
#410000
1!
1-
1D
1;
1E
0G
0I
0B
0C
1H
0"
0#
0=
0<
#420000
0!
0-
0D
0;
0E
#430000
1!
1-
1D
1;
1E
1I
1B
1F
1"
1<
#440000
0!
0-
0D
0;
0E
#450000
1!
1-
1D
1;
1E
1G
1C
0F
0H
1#
1=
#460000
0!
0-
0D
0;
0E
#470000
1!
1-
1D
1;
1E
0G
0I
0B
0C
1H
0"
0#
0=
0<
#480000
0!
0-
0D
0;
0E
#490000
1!
1-
1D
1;
1E
1I
1B
1F
1"
1<
#500000
0!
0-
0D
0;
0E
#510000
1!
1-
1D
1;
1E
1G
1C
0F
0H
1#
1=
#520000
0!
0-
0D
0;
0E
#530000
1!
1-
1D
1;
1E
0G
0I
0B
0C
1H
0"
0#
0=
0<
#540000
0!
0-
0D
0;
0E
#550000
1!
1-
1D
1;
1E
1I
1B
1F
1"
1<
#560000
0!
0-
0D
0;
0E
#570000
1!
1-
1D
1;
1E
1G
1C
0F
0H
1#
1=
#580000
0!
0-
0D
0;
0E
#590000
1!
1-
1D
1;
1E
0G
0I
0B
0C
1H
0"
0#
0=
0<
#600000
0!
0-
0D
0;
0E
#610000
1!
1-
1D
1;
1E
1I
1B
1F
1"
1<
#620000
0!
0-
0D
0;
0E
#630000
1!
1-
1D
1;
1E
1G
1C
0F
0H
1#
1=
#640000
0!
0-
0D
0;
0E
#650000
1!
1-
1D
1;
1E
0G
0I
0B
0C
1H
0"
0#
0=
0<
#660000
0!
0-
0D
0;
0E
#670000
1!
1-
1D
1;
1E
1I
1B
1F
1"
1<
#680000
0!
0-
0D
0;
0E
#690000
1!
1-
1D
1;
1E
1G
1C
0F
0H
1#
1=
#700000
0!
0-
0D
0;
0E
#710000
1!
1-
1D
1;
1E
0G
0I
0B
0C
1H
0"
0#
0=
0<
#720000
0!
0-
0D
0;
0E
#730000
1!
1-
1D
1;
1E
1I
1B
1F
1"
1<
#740000
0!
0-
0D
0;
0E
#750000
1!
1-
1D
1;
1E
1G
1C
0F
0H
1#
1=
#760000
0!
0-
0D
0;
0E
#770000
1!
1-
1D
1;
1E
0G
0I
0B
0C
1H
0"
0#
0=
0<
#780000
0!
0-
0D
0;
0E
#790000
1!
1-
1D
1;
1E
1I
1B
1F
1"
1<
#800000
0!
0-
0D
0;
0E
#810000
1!
1-
1D
1;
1E
1G
1C
0F
0H
1#
1=
#820000
0!
0-
0D
0;
0E
#830000
1!
1-
1D
1;
1E
0G
0I
0B
0C
1H
0"
0#
0=
0<
#840000
0!
0-
0D
0;
0E
#850000
1!
1-
1D
1;
1E
1I
1B
1F
1"
1<
#860000
0!
0-
0D
0;
0E
#870000
1!
1-
1D
1;
1E
1G
1C
0F
0H
1#
1=
#880000
0!
0-
0D
0;
0E
#890000
1!
1-
1D
1;
1E
0G
0I
0B
0C
1H
0"
0#
0=
0<
#900000
0!
0-
0D
0;
0E
#910000
1!
1-
1D
1;
1E
1I
1B
1F
1"
1<
#920000
0!
0-
0D
0;
0E
#930000
1!
1-
1D
1;
1E
1G
1C
0F
0H
1#
1=
#940000
0!
0-
0D
0;
0E
#950000
1!
1-
1D
1;
1E
0G
0I
0B
0C
1H
0"
0#
0=
0<
#960000
0!
0-
0D
0;
0E
#970000
1!
1-
1D
1;
1E
1I
1B
1F
1"
1<
#980000
0!
0-
0D
0;
0E
#990000
1!
1-
1D
1;
1E
1G
1C
0F
0H
1#
1=
